dual_edge.vcd
$date
	Mon Nov 25 16:54:55 2024
$end
$version
	Icarus Verilog
$end
$timescale
	1s
$end
$scope module main $end
$var wire 1 ! tick $end
$var reg 1 " clk $end
$var reg 1 # rst $end
$var reg 1 $ signal $end
$scope module d1 $end
$var wire 1 " clk $end
$var wire 1 # rst $end
$var wire 1 $ signal $end
$var parameter 2 % HIGH $end
$var parameter 2 & LOW $end
$var parameter 2 ' NEG_EDGE $end
$var parameter 2 ( POS_EDGE $end
$var reg 2 ) next_state [1:0] $end
$var reg 2 * state_current [1:0] $end
$var reg 1 ! tick $end
$upscope $end
$upscope $end
$enddefinitions $end
$comment Show the parameter values. $end
$dumpall
b1 (
b10 '
b0 &
b11 %
$end
#0
$dumpvars
b0 *
b0 )
0$
1#
0"
0!
$end
#5
1"
#10
0#
0"
#15
1"
#20
0"
#25
1"
#30
0"
#35
1"
#40
b1 )
1$
0"
#45
1!
b11 )
b1 *
1"
#50
0"
#55
0!
b11 *
1"
#60
b10 )
0$
0"
#65
1!
b0 )
b10 *
1"
#70
0"
#75
0!
b0 *
1"
